{
  "Routes": [
    {
      "DownstreamPathTemplate": "/api/ecenter/{name}/dynamiclist/{mode}",
      "DownstreamScheme": "http",
      "DownstreamHostAndPorts": [
        {
          "Host": "172.16.100.141",
          "Port": 93
        }
      ],
      "UpstreamPathTemplate": "/api/timemanage/{name}/dynamiclist/{mode}",
      "UpstreamHttpMethod": [ "POST" ]
    },
    {
      "DownstreamPathTemplate": "/api/ecenter/{name}/dynamicadd/{mode}",
      "DownstreamScheme": "http",
      "DownstreamHostAndPorts": [
        {
          "Host": "172.16.100.141",
          "Port": 93
        }
      ],
      "UpstreamPathTemplate": "/api/timemanage/{name}/dynamicadd/{mode}",
      "UpstreamHttpMethod": [ "POST" ]
    },
    {
      "DownstreamPathTemplate": "/api/ecenter/{name}/dynamicListadd/{mode}",
      "DownstreamScheme": "http",
      "DownstreamHostAndPorts": [
        {
          "Host": "172.16.100.141",
          "Port": 93
        }
      ],
      "UpstreamPathTemplate": "/api/timemanage/{name}/dynamicListadd/{mode}",
      "UpstreamHttpMethod": [ "POST" ]
    },
    {
      "DownstreamPathTemplate": "/api/common/{name}/dynamicListHeadAdd/{mode}",
      "DownstreamScheme": "http",
      "DownstreamHostAndPorts": [
        {
          "Host": "172.16.100.141",
          "Port": 93
        }
      ],
      "UpstreamPathTemplate": "/api/timemanage/{name}/dynamicListHeadAdd/{mode}",
      "UpstreamHttpMethod": [ "POST" ]
    },
    {
      "DownstreamPathTemplate": "/api/ecenter/{name}/dynamiclistchild/{mode}",
      "DownstreamScheme": "http",
      "DownstreamHostAndPorts": [
        {
          "Host": "172.16.100.141",
          "Port": 93
        }
      ],
      "UpstreamPathTemplate": "/api/timemanage/{name}/dynamiclistchild/{mode}",
      "UpstreamHttpMethod": [ "POST" ]
    },
    {
      "DownstreamPathTemplate": "/api/ecenter/{name}/dynamicupload/{mode}",
      "DownstreamScheme": "http",
      "DownstreamHostAndPorts": [
        {
          "Host": "172.16.100.141",
          "Port": 93
        }
      ],
      "UpstreamPathTemplate": "/api/timemanage/{name}/dynamicupload/{mode}",
      "UpstreamHttpMethod": [ "POST" ]
    },
    {
      "DownstreamPathTemplate": "/api/ecenter/{name}/dynamicdownload/{mode}",
      "DownstreamScheme": "http",
      "DownstreamHostAndPorts": [
        {
          "Host": "172.16.100.141",
          "Port": 93
        }
      ],
      "UpstreamPathTemplate": "/api/timemanage/{name}/dynamicdownload/{mode}",
      "UpstreamHttpMethod": [ "POST" ]
    },
    {
      "DownstreamPathTemplate": "/api/ecenter/{name}/dynamicdownloadexcel/{mode}",
      "DownstreamScheme": "http",
      "DownstreamHostAndPorts": [
        {
          "Host": "172.16.100.141",
          "Port": 93
        }
      ],
      "UpstreamPathTemplate": "/api/timemanage/{name}/dynamicdownloadexcel/{mode}",
      "UpstreamHttpMethod": [ "POST" ]
    },
    {
      "DownstreamPathTemplate": "/api/ecenter/{name}/dynamicformexceldownload/{mode}",
      "DownstreamScheme": "http",
      "DownstreamHostAndPorts": [
        {
          "Host": "172.16.100.141",
          "Port": 93
        }
      ],
      "UpstreamPathTemplate": "/api/timemanage/{name}/dynamicformexceldownload/{mode}",
      "UpstreamHttpMethod": [ "POST" ]
    },

    {
      "DownstreamPathTemplate": "/api/ecenter/{name}/dynamicdisplayimg/{mode}",
      "DownstreamScheme": "http",
      "DownstreamHostAndPorts": [
        {
          "Host": "172.16.100.141",
          "Port": 93
        }
      ],
      "UpstreamPathTemplate": "/api/ecenter/{name}/dynamicdisplayimg/{mode}",
      "UpstreamHttpMethod": [ "GET" ]
    },

    {
      "DownstreamPathTemplate": "/api/ecenter/{name}/dynamiclist/{mode}",
      "DownstreamScheme": "http",
      "DownstreamHostAndPorts": [
        {
          "Host": "172.16.100.141",
          "Port": 93
        }
      ],
      "UpstreamPathTemplate": "/api/ecenter/{name}/dynamiclist/{mode}",
      "UpstreamHttpMethod": [ "POST" ]
    },
    {
      "DownstreamPathTemplate": "/api/ecenter/{name}/dynamicadd/{mode}",
      "DownstreamScheme": "http",
      "DownstreamHostAndPorts": [
        {
          "Host": "172.16.100.141",
          "Port": 93
        }
      ],
      "UpstreamPathTemplate": "/api/ecenter/{name}/dynamicadd/{mode}",
      "UpstreamHttpMethod": [ "POST" ]
    },
    {
      "DownstreamPathTemplate": "/api/ecenter/{name}/gsuitedynamicadd/{mode}",
      "DownstreamScheme": "http",
      "DownstreamHostAndPorts": [
        {
          "Host": "172.16.100.141",
          "Port": 93
        }
      ],
      "UpstreamPathTemplate": "/api/ecenter/{name}/gsuitedynamicadd/{mode}",
      "UpstreamHttpMethod": [ "POST" ]
    },
    {
      "DownstreamPathTemplate": "/api/ecenter/{name}/gsuitedynamiccancel/{mode}",
      "DownstreamScheme": "http",
      "DownstreamHostAndPorts": [
        {
          "Host": "172.16.100.141",
          "Port": 93
        }
      ],
      "UpstreamPathTemplate": "/api/ecenter/{name}/gsuitedynamiccancel/{mode}",
      "UpstreamHttpMethod": [ "POST" ]
    },
    {
      "DownstreamPathTemplate": "/api/ecenter/{name}/gsuitedynamicgetdata/{mode}",
      "DownstreamScheme": "http",
      "DownstreamHostAndPorts": [
        {
          "Host": "172.16.100.141",
          "Port": 93
        }
      ],
      "UpstreamPathTemplate": "/api/ecenter/{name}/gsuitedynamicgetdata/{mode}",
      "UpstreamHttpMethod": [ "POST" ]
    },
    {
      "DownstreamPathTemplate": "/api/ecenter/{name}/dynamicListadd/{mode}",
      "DownstreamScheme": "http",
      "DownstreamHostAndPorts": [
        {
          "Host": "172.16.100.141",
          "Port": 93
        }
      ],
      "UpstreamPathTemplate": "/api/ecenter/{name}/dynamicListadd/{mode}",
      "UpstreamHttpMethod": [ "POST" ]
    },
    {
      "DownstreamPathTemplate": "/api/common/{name}/dynamicListHeadAdd/{mode}",
      "DownstreamScheme": "http",
      "DownstreamHostAndPorts": [
        {
          "Host": "172.16.100.141",
          "Port": 93
        }
      ],
      "UpstreamPathTemplate": "/api/ecenter/{name}/dynamicListHeadAdd/{mode}",
      "UpstreamHttpMethod": [ "POST" ]
    },
    {
      "DownstreamPathTemplate": "/api/ecenter/{name}/dynamiclistchild/{mode}",
      "DownstreamScheme": "http",
      "DownstreamHostAndPorts": [
        {
          "Host": "172.16.100.141",
          "Port": 93
        }
      ],
      "UpstreamPathTemplate": "/api/ecenter/{name}/dynamiclistchild/{mode}",
      "UpstreamHttpMethod": [ "POST" ]
    },
    {
      "DownstreamPathTemplate": "/api/ecenter/{name}/dynamicupload/{mode}",
      "DownstreamScheme": "http",
      "DownstreamHostAndPorts": [
        {
          "Host": "172.16.100.141",
          "Port": 93
        }
      ],
      "UpstreamPathTemplate": "/api/ecenter/{name}/dynamicupload/{mode}",
      "UpstreamHttpMethod": [ "POST" ]
    },
    {
      "DownstreamPathTemplate": "/api/ecenter/{name}/dynamicdownload/{mode}",
      "DownstreamScheme": "http",
      "DownstreamHostAndPorts": [
        {
          "Host": "172.16.100.141",
          "Port": 93
        }
      ],
      "UpstreamPathTemplate": "/api/ecenter/{name}/dynamicdownload/{mode}",
      "UpstreamHttpMethod": [ "POST" ]
    },
    {
      "DownstreamPathTemplate": "/api/ecenter/{name}/dynamicdownloadexcel/{mode}",
      "DownstreamScheme": "http",
      "DownstreamHostAndPorts": [
        {
          "Host": "172.16.100.141",
          "Port": 93
        }
      ],
      "UpstreamPathTemplate": "/api/ecenter/{name}/dynamicdownloadexcel/{mode}",
      "UpstreamHttpMethod": [ "POST" ]
    },
    {
      "DownstreamPathTemplate": "/api/ecenter/{name}/dynamicformexceldownload/{mode}",
      "DownstreamScheme": "http",
      "DownstreamHostAndPorts": [
        {
          "Host": "172.16.100.141",
          "Port": 93
        }
      ],
      "UpstreamPathTemplate": "/api/ecenter/{name}/dynamicformexceldownload/{mode}",
      "UpstreamHttpMethod": [ "POST" ]
    },
    {
      "DownstreamPathTemplate": "/api/ecenter/{name}/dynamicpdfdownload/{mode}",
      "DownstreamScheme": "http",
      "DownstreamHostAndPorts": [
        {
          "Host": "172.16.100.141",
          "Port": 93
        }
      ],
      "UpstreamPathTemplate": "/api/ecenter/{name}/dynamicpdfdownload/{mode}",
      "UpstreamHttpMethod": [ "POST" ]
    },


    {
      "DownstreamPathTemplate": "/api/ecenter/{name}/dynamiclist/{mode}",
      "DownstreamScheme": "http",
      "DownstreamHostAndPorts": [
        {
          "Host": "172.16.100.141",
          "Port": 93
        }
      ],
      "UpstreamPathTemplate": "/api/process/{name}/dynamiclist/{mode}",
      "UpstreamHttpMethod": [ "POST" ]
    },
    {
      "DownstreamPathTemplate": "/api/ecenter/{name}/dynamicadd/{mode}",
      "DownstreamScheme": "http",
      "DownstreamHostAndPorts": [
        {
          "Host": "172.16.100.141",
          "Port": 93
        }
      ],
      "UpstreamPathTemplate": "/api/process/{name}/dynamicadd/{mode}",
      "UpstreamHttpMethod": [ "POST" ]
    },
    {
      "DownstreamPathTemplate": "/api/ecenter/{name}/dynamicListadd/{mode}",
      "DownstreamScheme": "http",
      "DownstreamHostAndPorts": [
        {
          "Host": "172.16.100.141",
          "Port": 93
        }
      ],
      "UpstreamPathTemplate": "/api/process/{name}/dynamicListadd/{mode}",
      "UpstreamHttpMethod": [ "POST" ]
    },
    {
      "DownstreamPathTemplate": "/api/common/{name}/dynamicListHeadAdd/{mode}",
      "DownstreamScheme": "http",
      "DownstreamHostAndPorts": [
        {
          "Host": "172.16.100.141",
          "Port": 93
        }
      ],
      "UpstreamPathTemplate": "/api/process/{name}/dynamicListHeadAdd/{mode}",
      "UpstreamHttpMethod": [ "POST" ]
    },
    {
      "DownstreamPathTemplate": "/api/ecenter/{name}/dynamiclistchild/{mode}",
      "DownstreamScheme": "http",
      "DownstreamHostAndPorts": [
        {
          "Host": "172.16.100.141",
          "Port": 93
        }
      ],
      "UpstreamPathTemplate": "/api/process/{name}/dynamiclistchild/{mode}",
      "UpstreamHttpMethod": [ "POST" ]
    },
    {
      "DownstreamPathTemplate": "/api/ecenter/{name}/dynamicupload/{mode}",
      "DownstreamScheme": "http",
      "DownstreamHostAndPorts": [
        {
          "Host": "172.16.100.141",
          "Port": 93
        }
      ],
      "UpstreamPathTemplate": "/api/process/{name}/dynamicupload/{mode}",
      "UpstreamHttpMethod": [ "POST" ]
    },
    {
      "DownstreamPathTemplate": "/api/ecenter/{name}/dynamicdownload/{mode}",
      "DownstreamScheme": "http",
      "DownstreamHostAndPorts": [
        {
          "Host": "172.16.100.141",
          "Port": 93
        }
      ],
      "UpstreamPathTemplate": "/api/process/{name}/dynamicdownload/{mode}",
      "UpstreamHttpMethod": [ "POST" ]
    },
    {
      "DownstreamPathTemplate": "/api/ecenter/{name}/dynamicdownloadexcel/{mode}",
      "DownstreamScheme": "http",
      "DownstreamHostAndPorts": [
        {
          "Host": "172.16.100.141",
          "Port": 93
        }
      ],
      "UpstreamPathTemplate": "/api/process/{name}/dynamicdownloadexcel/{mode}",
      "UpstreamHttpMethod": [ "POST" ]
    },
    {
      "DownstreamPathTemplate": "/api/ecenter/{name}/dynamicformexceldownload/{mode}",
      "DownstreamScheme": "http",
      "DownstreamHostAndPorts": [
        {
          "Host": "172.16.100.141",
          "Port": 93
        }
      ],
      "UpstreamPathTemplate": "/api/process/{name}/dynamicformexceldownload/{mode}",
      "UpstreamHttpMethod": [ "POST" ]
    },




    {
      "DownstreamPathTemplate": "/api/pdfViewer/Load",
      "DownstreamScheme": "http",
      "DownstreamHostAndPorts": [
        {
          "Host": "172.16.100.141",
          "Port": 9355
        }
      ],
      "UpstreamPathTemplate": "/api/pdfViewer/Load",
      "UpstreamHttpMethod": [ "POST" ]
    },
    {
      "DownstreamPathTemplate": "/api/pdfViewer/RenderPdfPages",
      "DownstreamScheme": "http",
      "DownstreamHostAndPorts": [
        {
          "Host": "172.16.100.141",
          "Port": 9355
        }
      ],
      "UpstreamPathTemplate": "/api/pdfViewer/RenderPdfPages",
      "UpstreamHttpMethod": [ "POST" ]
    },
    {
      "DownstreamPathTemplate": "/api/pdfViewer/Unload",
      "DownstreamScheme": "http",
      "DownstreamHostAndPorts": [
        {
          "Host": "172.16.100.141",
          "Port": 9355
        }
      ],
      "UpstreamPathTemplate": "/api/pdfViewer/Unload",
      "UpstreamHttpMethod": [ "POST" ]
    },
    {
      "DownstreamPathTemplate": "/api/pdfViewer/RenderThumbnailImages",
      "DownstreamScheme": "http",
      "DownstreamHostAndPorts": [
        {
          "Host": "172.16.100.141",
          "Port": 9355
        }
      ],
      "UpstreamPathTemplate": "/api/pdfViewer/RenderThumbnailImages",
      "UpstreamHttpMethod": [ "POST" ]
    },
    {
      "DownstreamPathTemplate": "/api/pdfViewer/Bookmarks",
      "DownstreamScheme": "http",
      "DownstreamHostAndPorts": [
        {
          "Host": "172.16.100.141",
          "Port": 9355
        }
      ],
      "UpstreamPathTemplate": "/api/pdfViewer/Bookmarks",
      "UpstreamHttpMethod": [ "POST" ]
    },
    {
      "DownstreamPathTemplate": "/api/pdfViewer/Download",
      "DownstreamScheme": "http",
      "DownstreamHostAndPorts": [
        {
          "Host": "172.16.100.141",
          "Port": 9355
        }
      ],
      "UpstreamPathTemplate": "/api/pdfViewer/Download",
      "UpstreamHttpMethod": [ "POST" ]
    },
    {
      "DownstreamPathTemplate": "/api/pdfViewer/RenderAnnotationComments",
      "DownstreamScheme": "http",
      "DownstreamHostAndPorts": [
        {
          "Host": "172.16.100.141",
          "Port": 9355
        }
      ],
      "UpstreamPathTemplate": "/api/pdfViewer/RenderAnnotationComments",
      "UpstreamHttpMethod": [ "POST" ]
    },


    {
      "DownstreamPathTemplate": "/api/ecenter/{name}/dynamiclist/{mode}",
      "DownstreamScheme": "http",
      "DownstreamHostAndPorts": [
        {
          "Host": "172.16.100.141",
          "Port": 93
        }
      ],
      "UpstreamPathTemplate": "/api/chillconnect/{name}/dynamiclist/{mode}",
      "UpstreamHttpMethod": [ "POST" ]
    },
    {
      "DownstreamPathTemplate": "/api/ecenter/{name}/dynamicadd/{mode}",
      "DownstreamScheme": "http",
      "DownstreamHostAndPorts": [
        {
          "Host": "172.16.100.141",
          "Port": 93
        }
      ],
      "UpstreamPathTemplate": "/api/chillconnect/{name}/dynamicadd/{mode}",
      "UpstreamHttpMethod": [ "POST" ]
    },
    {
      "DownstreamPathTemplate": "/api/ecenter/{name}/dynamicListadd/{mode}",
      "DownstreamScheme": "http",
      "DownstreamHostAndPorts": [
        {
          "Host": "172.16.100.141",
          "Port": 93
        }
      ],
      "UpstreamPathTemplate": "/api/chillconnect/{name}/dynamicListadd/{mode}",
      "UpstreamHttpMethod": [ "POST" ]
    },
    {
      "DownstreamPathTemplate": "/api/common/{name}/dynamicListHeadAdd/{mode}",
      "DownstreamScheme": "http",
      "DownstreamHostAndPorts": [
        {
          "Host": "172.16.100.141",
          "Port": 93
        }
      ],
      "UpstreamPathTemplate": "/api/chillconnect/{name}/dynamicListHeadAdd/{mode}",
      "UpstreamHttpMethod": [ "POST" ]
    },
    {
      "DownstreamPathTemplate": "/api/ecenter/{name}/dynamiclistchild/{mode}",
      "DownstreamScheme": "http",
      "DownstreamHostAndPorts": [
        {
          "Host": "172.16.100.141",
          "Port": 93
        }
      ],
      "UpstreamPathTemplate": "/api/chillconnect/{name}/dynamiclistchild/{mode}",
      "UpstreamHttpMethod": [ "POST" ]
    },
    {
      "DownstreamPathTemplate": "/api/ecenter/{name}/dynamicupload/{mode}",
      "DownstreamScheme": "http",
      "DownstreamHostAndPorts": [
        {
          "Host": "172.16.100.141",
          "Port": 93
        }
      ],
      "UpstreamPathTemplate": "/api/chillconnect/{name}/dynamicupload/{mode}",
      "UpstreamHttpMethod": [ "POST" ]
    },
    {
      "DownstreamPathTemplate": "/api/ecenter/{name}/dynamicdownload/{mode}",
      "DownstreamScheme": "http",
      "DownstreamHostAndPorts": [
        {
          "Host": "172.16.100.141",
          "Port": 93
        }
      ],
      "UpstreamPathTemplate": "/api/chillconnect/{name}/dynamicdownload/{mode}",
      "UpstreamHttpMethod": [ "POST" ]
    },
    {
      "DownstreamPathTemplate": "/api/ecenter/{name}/dynamicdownloadexcel/{mode}",
      "DownstreamScheme": "http",
      "DownstreamHostAndPorts": [
        {
          "Host": "172.16.100.141",
          "Port": 93
        }
      ],
      "UpstreamPathTemplate": "/api/chillconnect/{name}/dynamicdownloadexcel/{mode}",
      "UpstreamHttpMethod": [ "POST" ]
    },
    {
      "DownstreamPathTemplate": "/api/ecenter/{name}/dynamicformexceldownload/{mode}",
      "DownstreamScheme": "http",
      "DownstreamHostAndPorts": [
        {
          "Host": "172.16.100.141",
          "Port": 93
        }
      ],
      "UpstreamPathTemplate": "/api/chillconnect/{name}/dynamicformexceldownload/{mode}",
      "UpstreamHttpMethod": [ "POST" ]
    },

    {
      "DownstreamPathTemplate": "/api/chillflow/{name}/dynamiclist/{mode}",
      "DownstreamScheme": "http",
      "DownstreamHostAndPorts": [
        {
          "Host": "172.16.100.141",
          "Port": 93
        }
      ],
      "UpstreamPathTemplate": "/api/chillflow/{name}/dynamiclist/{mode}",
      "UpstreamHttpMethod": [ "POST" ]
    },
    {
      "DownstreamPathTemplate": "/api/chillflow/{name}/dynamicadd/{mode}",
      "DownstreamScheme": "http",
      "DownstreamHostAndPorts": [
        {
          "Host": "172.16.100.141",
          "Port": 93
        }
      ],
      "UpstreamPathTemplate": "/api/chillflow/{name}/dynamicadd/{mode}",
      "UpstreamHttpMethod": [ "POST" ]
    },
    {
      "DownstreamPathTemplate": "/api/chillflow/{name}/dynamicListadd/{mode}",
      "DownstreamScheme": "http",
      "DownstreamHostAndPorts": [
        {
          "Host": "172.16.100.141",
          "Port": 93
        }
      ],
      "UpstreamPathTemplate": "/api/chillflow/{name}/dynamicListadd/{mode}",
      "UpstreamHttpMethod": [ "POST" ]
    },
    {
      "DownstreamPathTemplate": "/api/common/{name}/dynamicListHeadAdd/{mode}",
      "DownstreamScheme": "http",
      "DownstreamHostAndPorts": [
        {
          "Host": "172.16.100.141",
          "Port": 93
        }
      ],
      "UpstreamPathTemplate": "/api/chillflow/{name}/dynamicListHeadAdd/{mode}",
      "UpstreamHttpMethod": [ "POST" ]
    },
    {
      "DownstreamPathTemplate": "/api/chillflow/{name}/dynamiclistchild/{mode}",
      "DownstreamScheme": "http",
      "DownstreamHostAndPorts": [
        {
          "Host": "172.16.100.141",
          "Port": 93
        }
      ],
      "UpstreamPathTemplate": "/api/chillflow/{name}/dynamiclistchild/{mode}",
      "UpstreamHttpMethod": [ "POST" ]
    },
    {
      "DownstreamPathTemplate": "/api/chillflow/{name}/dynamicupload/{mode}",
      "DownstreamScheme": "http",
      "DownstreamHostAndPorts": [
        {
          "Host": "172.16.100.141",
          "Port": 93
        }
      ],
      "UpstreamPathTemplate": "/api/chillflow/{name}/dynamicupload/{mode}",
      "UpstreamHttpMethod": [ "POST" ]
    },
    {
      "DownstreamPathTemplate": "/api/chillflow/{name}/dynamicdownload/{mode}",
      "DownstreamScheme": "http",
      "DownstreamHostAndPorts": [
        {
          "Host": "172.16.100.141",
          "Port": 93
        }
      ],
      "UpstreamPathTemplate": "/api/chillflow/{name}/dynamicdownload/{mode}",
      "UpstreamHttpMethod": [ "POST" ]
    },
    {
      "DownstreamPathTemplate": "/api/chillflow/{name}/dynamicdownloadexcel/{mode}",
      "DownstreamScheme": "http",
      "DownstreamHostAndPorts": [
        {
          "Host": "172.16.100.141",
          "Port": 93
        }
      ],
      "UpstreamPathTemplate": "/api/chillflow/{name}/dynamicdownloadexcel/{mode}",
      "UpstreamHttpMethod": [ "POST" ]
    },
    {
      "DownstreamPathTemplate": "/api/chillflow/{name}/dynamicformexceldownload/{mode}",
      "DownstreamScheme": "http",
      "DownstreamHostAndPorts": [
        {
          "Host": "172.16.100.141",
          "Port": 93
        }
      ],
      "UpstreamPathTemplate": "/api/chillflow/{name}/dynamicformexceldownload/{mode}",
      "UpstreamHttpMethod": [ "POST" ]
    },

    {
      "DownstreamPathTemplate": "/api/ecenter/{name}/dynamiclist/{mode}",
      "DownstreamScheme": "http",
      "DownstreamHostAndPorts": [
        {
          "Host": "172.16.100.141",
          "Port": 93
        }
      ],
      "UpstreamPathTemplate": "/api/performance/{name}/dynamiclist/{mode}",
      "UpstreamHttpMethod": [ "POST" ]
    },
    {
      "DownstreamPathTemplate": "/api/ecenter/{name}/dynamicadd/{mode}",
      "DownstreamScheme": "http",
      "DownstreamHostAndPorts": [
        {
          "Host": "172.16.100.141",
          "Port": 93
        }
      ],
      "UpstreamPathTemplate": "/api/performance/{name}/dynamicadd/{mode}",
      "UpstreamHttpMethod": [ "POST" ]
    },
    {
      "DownstreamPathTemplate": "/api/ecenter/{name}/dynamicListadd/{mode}",
      "DownstreamScheme": "http",
      "DownstreamHostAndPorts": [
        {
          "Host": "172.16.100.141",
          "Port": 93
        }
      ],
      "UpstreamPathTemplate": "/api/performance/{name}/dynamicListadd/{mode}",
      "UpstreamHttpMethod": [ "POST" ]
    },
    {
      "DownstreamPathTemplate": "/api/common/{name}/dynamicListHeadAdd/{mode}",
      "DownstreamScheme": "http",
      "DownstreamHostAndPorts": [
        {
          "Host": "172.16.100.141",
          "Port": 93
        }
      ],
      "UpstreamPathTemplate": "/api/performance/{name}/dynamicListHeadAdd/{mode}",
      "UpstreamHttpMethod": [ "POST" ]
    },
    {
      "DownstreamPathTemplate": "/api/ecenter/{name}/dynamiclistchild/{mode}",
      "DownstreamScheme": "http",
      "DownstreamHostAndPorts": [
        {
          "Host": "172.16.100.141",
          "Port": 93
        }
      ],
      "UpstreamPathTemplate": "/api/performance/{name}/dynamiclistchild/{mode}",
      "UpstreamHttpMethod": [ "POST" ]
    },
    {
      "DownstreamPathTemplate": "/api/ecenter/{name}/dynamicupload/{mode}",
      "DownstreamScheme": "http",
      "DownstreamHostAndPorts": [
        {
          "Host": "172.16.100.141",
          "Port": 93
        }
      ],
      "UpstreamPathTemplate": "/api/performance/{name}/dynamicupload/{mode}",
      "UpstreamHttpMethod": [ "POST" ]
    },
    {
      "DownstreamPathTemplate": "/api/ecenter/{name}/dynamicdownload/{mode}",
      "DownstreamScheme": "http",
      "DownstreamHostAndPorts": [
        {
          "Host": "172.16.100.141",
          "Port": 93
        }
      ],
      "UpstreamPathTemplate": "/api/performance/{name}/dynamicdownload/{mode}",
      "UpstreamHttpMethod": [ "POST" ]
    },
    {
      "DownstreamPathTemplate": "/api/ecenter/{name}/dynamicdownloadexcel/{mode}",
      "DownstreamScheme": "http",
      "DownstreamHostAndPorts": [
        {
          "Host": "172.16.100.141",
          "Port": 93
        }
      ],
      "UpstreamPathTemplate": "/api/performance/{name}/dynamicdownloadexcel/{mode}",
      "UpstreamHttpMethod": [ "POST" ]
    },
    {
      "DownstreamPathTemplate": "/api/ecenter/{name}/dynamicformexceldownload/{mode}",
      "DownstreamScheme": "http",
      "DownstreamHostAndPorts": [
        {
          "Host": "172.16.100.141",
          "Port": 93
        }
      ],
      "UpstreamPathTemplate": "/api/performance/{name}/dynamicformexceldownload/{mode}",
      "UpstreamHttpMethod": [ "POST" ]
    },

    {
      "DownstreamPathTemplate": "/api/ecenter/{name}/dynamiclist/{mode}",
      "DownstreamScheme": "http",
      "DownstreamHostAndPorts": [
        {
          "Host": "172.16.100.141",
          "Port": 94
        }
      ],
      "UpstreamPathTemplate": "/api/common/{name}/dynamiclist/{mode}",
      "UpstreamHttpMethod": [ "POST" ]
    },
    {
      "DownstreamPathTemplate": "/api/ecenter/{name}/dynamicadd/{mode}",
      "DownstreamScheme": "http",
      "DownstreamHostAndPorts": [
        {
          "Host": "172.16.100.141",
          "Port": 94
        }
      ],
      "UpstreamPathTemplate": "/api/common/{name}/dynamicadd/{mode}",
      "UpstreamHttpMethod": [ "POST" ]
    },
    {
      "DownstreamPathTemplate": "/api/ecenter/{name}/dynamicListadd/{mode}",
      "DownstreamScheme": "http",
      "DownstreamHostAndPorts": [
        {
          "Host": "172.16.100.141",
          "Port": 94
        }
      ],
      "UpstreamPathTemplate": "/api/common/{name}/dynamicListadd/{mode}",
      "UpstreamHttpMethod": [ "POST" ]
    },
    {
      "DownstreamPathTemplate": "/api/common/{name}/dynamicListHeadAdd/{mode}",
      "DownstreamScheme": "http",
      "DownstreamHostAndPorts": [
        {
          "Host": "172.16.100.141",
          "Port": 94
        }
      ],
      "UpstreamPathTemplate": "/api/common/{name}/dynamicListHeadAdd/{mode}",
      "UpstreamHttpMethod": [ "POST" ]
    },
    {
      "DownstreamPathTemplate": "/api/ecenter/{name}/dynamiclistchild/{mode}",
      "DownstreamScheme": "http",
      "DownstreamHostAndPorts": [
        {
          "Host": "172.16.100.141",
          "Port": 94
        }
      ],
      "UpstreamPathTemplate": "/api/common/{name}/dynamiclistchild/{mode}",
      "UpstreamHttpMethod": [ "POST" ]
    },
    {
      "DownstreamPathTemplate": "/api/ecenter/{name}/dynamicupload/{mode}",
      "DownstreamScheme": "http",
      "DownstreamHostAndPorts": [
        {
          "Host": "172.16.100.141",
          "Port": 94
        }
      ],
      "UpstreamPathTemplate": "/api/common/{name}/dynamicupload/{mode}",
      "UpstreamHttpMethod": [ "POST" ]
    },
    {
      "DownstreamPathTemplate": "/api/ecenter/{name}/dynamicdownload/{mode}",
      "DownstreamScheme": "http",
      "DownstreamHostAndPorts": [
        {
          "Host": "172.16.100.141",
          "Port": 94
        }
      ],
      "UpstreamPathTemplate": "/api/common/{name}/dynamicdownload/{mode}",
      "UpstreamHttpMethod": [ "POST" ]
    },
    {
      "DownstreamPathTemplate": "/api/ecenter/{name}/dynamicdownloadexcel/{mode}",
      "DownstreamScheme": "http",
      "DownstreamHostAndPorts": [
        {
          "Host": "172.16.100.141",
          "Port": 94
        }
      ],
      "UpstreamPathTemplate": "/api/common/{name}/dynamicdownloadexcel/{mode}",
      "UpstreamHttpMethod": [ "POST" ]
    },

    {
      "DownstreamPathTemplate": "/api/ecenter/{name}/dynamiclist/{mode}",
      "DownstreamScheme": "http",
      "DownstreamHostAndPorts": [
        {
          "Host": "172.16.100.141",
          "Port": 94
        }
      ],
      "UpstreamPathTemplate": "/api/talent/{name}/dynamiclist/{mode}",
      "UpstreamHttpMethod": [ "POST" ]
    },
    {
      "DownstreamPathTemplate": "/api/ecenter/{name}/dynamicadd/{mode}",
      "DownstreamScheme": "http",
      "DownstreamHostAndPorts": [
        {
          "Host": "172.16.100.141",
          "Port": 94
        }
      ],
      "UpstreamPathTemplate": "/api/talent/{name}/dynamicadd/{mode}",
      "UpstreamHttpMethod": [ "POST" ]
    },
    {
      "DownstreamPathTemplate": "/api/ecenter/{name}/dynamicListadd/{mode}",
      "DownstreamScheme": "http",
      "DownstreamHostAndPorts": [
        {
          "Host": "172.16.100.141",
          "Port": 94
        }
      ],
      "UpstreamPathTemplate": "/api/talent/{name}/dynamicListadd/{mode}",
      "UpstreamHttpMethod": [ "POST" ]
    },
    {
      "DownstreamPathTemplate": "/api/common/{name}/dynamicListHeadAdd/{mode}",
      "DownstreamScheme": "http",
      "DownstreamHostAndPorts": [
        {
          "Host": "172.16.100.141",
          "Port": 94
        }
      ],
      "UpstreamPathTemplate": "/api/talent/{name}/dynamicListHeadAdd/{mode}",
      "UpstreamHttpMethod": [ "POST" ]
    },
    {
      "DownstreamPathTemplate": "/api/ecenter/{name}/dynamiclistchild/{mode}",
      "DownstreamScheme": "http",
      "DownstreamHostAndPorts": [
        {
          "Host": "172.16.100.141",
          "Port": 94
        }
      ],
      "UpstreamPathTemplate": "/api/talent/{name}/dynamiclistchild/{mode}",
      "UpstreamHttpMethod": [ "POST" ]
    },
    {
      "DownstreamPathTemplate": "/api/ecenter/{name}/dynamicupload/{mode}",
      "DownstreamScheme": "http",
      "DownstreamHostAndPorts": [
        {
          "Host": "172.16.100.141",
          "Port": 94
        }
      ],
      "UpstreamPathTemplate": "/api/talent/{name}/dynamicupload/{mode}",
      "UpstreamHttpMethod": [ "POST" ]
    },
    {
      "DownstreamPathTemplate": "/api/ecenter/{name}/dynamicdownload/{mode}",
      "DownstreamScheme": "http",
      "DownstreamHostAndPorts": [
        {
          "Host": "172.16.100.141",
          "Port": 94
        }
      ],
      "UpstreamPathTemplate": "/api/talent/{name}/dynamicdownload/{mode}",
      "UpstreamHttpMethod": [ "POST" ]
    },
    {
      "DownstreamPathTemplate": "/api/ecenter/{name}/dynamicdownloadexcel/{mode}",
      "DownstreamScheme": "http",
      "DownstreamHostAndPorts": [
        {
          "Host": "172.16.100.141",
          "Port": 94
        }
      ],
      "UpstreamPathTemplate": "/api/talent/{name}/dynamicdownloadexcel/{mode}",
      "UpstreamHttpMethod": [ "POST" ]
    },


    {
      "DownstreamPathTemplate": "/api/career/{name}/dynamiclist/{mode}",
      "DownstreamScheme": "http",
      "DownstreamHostAndPorts": [
        {
          "Host": "172.16.100.141",
          "Port": 94
        }
      ],
      "UpstreamPathTemplate": "/api/career/{name}/dynamiclist/{mode}",
      "UpstreamHttpMethod": [ "POST" ]
    },
    {
      "DownstreamPathTemplate": "/api/career/{name}/dynamicadd/{mode}",
      "DownstreamScheme": "http",
      "DownstreamHostAndPorts": [
        {
          "Host": "172.16.100.141",
          "Port": 94
        }
      ],
      "UpstreamPathTemplate": "/api/career/{name}/dynamicadd/{mode}",
      "UpstreamHttpMethod": [ "POST" ]
    },
    {
      "DownstreamPathTemplate": "/api/career/{name}/dynamicListadd/{mode}",
      "DownstreamScheme": "http",
      "DownstreamHostAndPorts": [
        {
          "Host": "172.16.100.141",
          "Port": 94
        }
      ],
      "UpstreamPathTemplate": "/api/career/{name}/dynamicListadd/{mode}",
      "UpstreamHttpMethod": [ "POST" ]
    },
    {
      "DownstreamPathTemplate": "/api/common/{name}/dynamicListHeadAdd/{mode}",
      "DownstreamScheme": "http",
      "DownstreamHostAndPorts": [
        {
          "Host": "172.16.100.141",
          "Port": 94
        }
      ],
      "UpstreamPathTemplate": "/api/career/{name}/dynamicListHeadAdd/{mode}",
      "UpstreamHttpMethod": [ "POST" ]
    },
    {
      "DownstreamPathTemplate": "/api/career/{name}/dynamiclistchild/{mode}",
      "DownstreamScheme": "http",
      "DownstreamHostAndPorts": [
        {
          "Host": "172.16.100.141",
          "Port": 94
        }
      ],
      "UpstreamPathTemplate": "/api/career/{name}/dynamiclistchild/{mode}",
      "UpstreamHttpMethod": [ "POST" ]
    },
    {
      "DownstreamPathTemplate": "/api/career/{name}/dynamicupload/{mode}",
      "DownstreamScheme": "http",
      "DownstreamHostAndPorts": [
        {
          "Host": "172.16.100.141",
          "Port": 94
        }
      ],
      "UpstreamPathTemplate": "/api/career/{name}/dynamicupload/{mode}",
      "UpstreamHttpMethod": [ "POST" ]
    },
    {
      "DownstreamPathTemplate": "/api/career/{name}/dynamicdownload/{mode}",
      "DownstreamScheme": "http",
      "DownstreamHostAndPorts": [
        {
          "Host": "172.16.100.141",
          "Port": 94
        }
      ],
      "UpstreamPathTemplate": "/api/career/{name}/dynamicdownload/{mode}",
      "UpstreamHttpMethod": [ "POST" ]
    },
    {
      "DownstreamPathTemplate": "/api/career/{name}/dynamicdownloadexcel/{mode}",
      "DownstreamScheme": "http",
      "DownstreamHostAndPorts": [
        {
          "Host": "172.16.100.141",
          "Port": 94
        }
      ],
      "UpstreamPathTemplate": "/api/career/{name}/dynamicdownloadexcel/{mode}",
      "UpstreamHttpMethod": [ "POST" ]
    },


    {
      "DownstreamPathTemplate": "/api/common/Modules",
      "DownstreamScheme": "http",
      "DownstreamHostAndPorts": [
        {
          "Host": "172.16.100.141",
          "Port": 94
        }
      ],
      "UpstreamPathTemplate": "/api/common/Modules",
      "UpstreamHttpMethod": [ "POST" ]
    },
    {
      "DownstreamPathTemplate": "/api/common/Menus",
      "DownstreamScheme": "http",
      "DownstreamHostAndPorts": [
        {
          "Host": "172.16.100.141",
          "Port": 94
        }
      ],
      "UpstreamPathTemplate": "/api/common/Menus",
      "UpstreamHttpMethod": [ "GET" ]
    },

    {
      "DownstreamPathTemplate": "/api/common/WordDocument",
      "DownstreamScheme": "http",
      "DownstreamHostAndPorts": [
        {
          "Host": "172.16.100.141",
          "Port": 94
        }
      ],
      "UpstreamPathTemplate": "/api/common/WordDocument",
      "UpstreamHttpMethod": [ "GET" ]
    },
    {
      "DownstreamPathTemplate": "/api/common/{name}/Options",
      "DownstreamScheme": "http",
      "DownstreamHostAndPorts": [
        {
          "Host": "172.16.100.141",
          "Port": 94
        }
      ],
      "UpstreamPathTemplate": "/api/common/{name}/Options",
      "UpstreamHttpMethod": [ "POST" ]
    },
    {
      "DownstreamPathTemplate": "/api/common/{Init}/Init",
      "DownstreamScheme": "http",
      "DownstreamHostAndPorts": [
        {
          "Host": "172.16.100.141",
          "Port": 94
        }
      ],
      "UpstreamPathTemplate": "/api/common/{Init}/Init",
      "UpstreamHttpMethod": [ "POST" ]
    },
    {
      "DownstreamPathTemplate": "/api/common/{Columns}/Columns",
      "DownstreamScheme": "http",
      "DownstreamHostAndPorts": [
        {
          "Host": "172.16.100.141",
          "Port": 94
        }
      ],
      "UpstreamPathTemplate": "/api/common/{Columns}/Columns",
      "UpstreamHttpMethod": [ "POST" ]
    },
    {
      "DownstreamPathTemplate": "/api/common/{Validation}/Validation",
      "DownstreamScheme": "http",
      "DownstreamHostAndPorts": [
        {
          "Host": "172.16.100.141",
          "Port": 94
        }
      ],
      "UpstreamPathTemplate": "/api/common/{Validation}/Validation",
      "UpstreamHttpMethod": [ "POST" ]
    },
    {
      "DownstreamPathTemplate": "/api/common/{SelectData}/SelectData",
      "DownstreamScheme": "http",
      "DownstreamHostAndPorts": [
        {
          "Host": "172.16.100.141",
          "Port": 94
        }
      ],
      "UpstreamPathTemplate": "/api/common/{SelectData}/SelectData",
      "UpstreamHttpMethod": [ "POST" ]
    },
    {
      "DownstreamPathTemplate": "/api/common/{RadioData}/RadioData",
      "DownstreamScheme": "http",
      "DownstreamHostAndPorts": [
        {
          "Host": "172.16.100.141",
          "Port": 94
        }
      ],
      "UpstreamPathTemplate": "/api/common/{RadioData}/RadioData",
      "UpstreamHttpMethod": [ "POST" ]
    },
    {
      "DownstreamPathTemplate": "/api/common/{Linkage}/Linkage",
      "DownstreamScheme": "http",
      "DownstreamHostAndPorts": [
        {
          "Host": "172.16.100.141",
          "Port": 94
        }
      ],
      "UpstreamPathTemplate": "/api/common/{Linkage}/Linkage",
      "UpstreamHttpMethod": [ "POST" ]
    },
    {
      "DownstreamPathTemplate": "/api/common/Routes",
      "DownstreamScheme": "http",
      "DownstreamHostAndPorts": [
        {
          "Host": "172.16.100.141",
          "Port": 94
        }
      ],
      "UpstreamPathTemplate": "/api/common/Routes",
      "UpstreamHttpMethod": [ "POST" ]
    },
    {
      "DownstreamPathTemplate": "/api/user/getuserdetail",
      "DownstreamScheme": "http",
      "DownstreamHostAndPorts": [
        {
          "Host": "172.16.100.141",
          "Port": 94
        }
      ],
      "UpstreamPathTemplate": "/api/user/getuserdetail",
      "UpstreamHttpMethod": [ "POST" ]
    },
    {
      "DownstreamPathTemplate": "/api/user/changerole",
      "DownstreamScheme": "http",
      "DownstreamHostAndPorts": [
        {
          "Host": "172.16.100.141",
          "Port": 94
        }
      ],
      "UpstreamPathTemplate": "/api/user/changerole",
      "UpstreamHttpMethod": [ "POST" ]
    },
    {
      "DownstreamPathTemplate": "/api/user",
      "DownstreamScheme": "http",
      "DownstreamHostAndPorts": [
        {
          "Host": "172.16.100.141",
          "Port": 94
        }
      ],
      "UpstreamPathTemplate": "/api/user",
      "UpstreamHttpMethod": [ "GET" ]
    },
    {
      "DownstreamPathTemplate": "/api/import/UploadFile",
      "DownstreamScheme": "http",
      "DownstreamHostAndPorts": [
        {
          "Host": "172.16.100.141",
          "Port": 94
        }
      ],
      "UpstreamPathTemplate": "/api/import/UploadFile",
      "UpstreamHttpMethod": [ "POST" ]
    },
    {
      "DownstreamPathTemplate": "/api/import/DownloadFile",
      "DownstreamScheme": "http",
      "DownstreamHostAndPorts": [
        {
          "Host": "172.16.100.141",
          "Port": 94
        }
      ],
      "UpstreamPathTemplate": "/api/import/DownloadFile",
      "UpstreamHttpMethod": [ "POST" ]
    },
    {
      "DownstreamPathTemplate": "/api/import/ProcessFile",
      "DownstreamScheme": "http",
      "DownstreamHostAndPorts": [
        {
          "Host": "172.16.100.141",
          "Port": 94
        }
      ],
      "UpstreamPathTemplate": "/api/import/ProcessFile",
      "UpstreamHttpMethod": [ "POST" ]
    },
    {
      "DownstreamPathTemplate": "/api/workerservice/scheduler",
      "DownstreamScheme": "http",
      "DownstreamHostAndPorts": [
        {
          "Host": "172.16.100.141",
          "Port": 94
        }
      ],
      "UpstreamPathTemplate": "/api/workerservice/scheduler",
      "UpstreamHttpMethod": [ "POST" ]
    },
    {
      "DownstreamPathTemplate": "/api/candidate/joblist/dynamiclist/{mode}",
      "DownstreamScheme": "http",
      "DownstreamHostAndPorts": [
        {
          "Host": "172.16.100.141",
          "Port": 94
        }
      ],
      "UpstreamPathTemplate": "/api/candidate/joblist/dynamiclist/{mode}",
      "UpstreamHttpMethod": [ "POST" ]
    },
    {
      "DownstreamPathTemplate": "/api/candidate/joblist/dynamicListadd/{mode}",
      "DownstreamScheme": "http",
      "DownstreamHostAndPorts": [
        {
          "Host": "172.16.100.141",
          "Port": 94
        }
      ],
      "UpstreamPathTemplate": "/api/candidate/joblist/dynamicListadd/{mode}",
      "UpstreamHttpMethod": [ "POST" ]
    },
    {
      "DownstreamPathTemplate": "/api/candidate/joblist/dynamicadd/{mode}",
      "DownstreamScheme": "http",
      "DownstreamHostAndPorts": [
        {
          "Host": "172.16.100.141",
          "Port": 94
        }
      ],
      "UpstreamPathTemplate": "/api/candidate/joblist/dynamicadd/{mode}",
      "UpstreamHttpMethod": [ "POST" ]
    },
    {
      "DownstreamPathTemplate": "/api/candidate/joblist/dynamiclistchild/{mode}",
      "DownstreamScheme": "http",
      "DownstreamHostAndPorts": [
        {
          "Host": "172.16.100.141",
          "Port": 94
        }
      ],
      "UpstreamPathTemplate": "/api/candidate/joblist/dynamiclistchild/{mode}",
      "UpstreamHttpMethod": [ "POST" ]
    },




    {
      "DownstreamPathTemplate": "/api/preonboarding/onboardlist/dynamiclist/{mode}",
      "DownstreamScheme": "http",
      "DownstreamHostAndPorts": [
        {
          "Host": "172.16.100.141",
          "Port": 94
        }
      ],
      "UpstreamPathTemplate": "/api/preonboarding/onboardlist/dynamiclist/{mode}",
      "UpstreamHttpMethod": [ "POST" ]
    },
    {
      "DownstreamPathTemplate": "/api/preonboarding/onboardlist/dynamicListadd/{mode}",
      "DownstreamScheme": "http",
      "DownstreamHostAndPorts": [
        {
          "Host": "172.16.100.141",
          "Port": 94
        }
      ],
      "UpstreamPathTemplate": "/api/preonboarding/onboardlist/dynamicListadd/{mode}",
      "UpstreamHttpMethod": [ "POST" ]
    },
    {
      "DownstreamPathTemplate": "/api/preonboarding/onboardlist/dynamicadd/{mode}",
      "DownstreamScheme": "http",
      "DownstreamHostAndPorts": [
        {
          "Host": "172.16.100.141",
          "Port": 94
        }
      ],
      "UpstreamPathTemplate": "/api/preonboarding/onboardlist/dynamicadd/{mode}",
      "UpstreamHttpMethod": [ "POST" ]
    },
    {
      "DownstreamPathTemplate": "/api/preonboarding/onboardlist/dynamiclistchild/{mode}",
      "DownstreamScheme": "http",
      "DownstreamHostAndPorts": [
        {
          "Host": "172.16.100.141",
          "Port": 94
        }
      ],
      "UpstreamPathTemplate": "/api/preonboarding/onboardlist/dynamiclistchild/{mode}",
      "UpstreamHttpMethod": [ "POST" ]
    },
    {
      "DownstreamPathTemplate": "/api/preonboarding/onboardlist/dynamicupload/{mode}",
      "DownstreamScheme": "http",
      "DownstreamHostAndPorts": [
        {
          "Host": "172.16.100.141",
          "Port": 94
        }
      ],
      "UpstreamPathTemplate": "/api/preonboarding/onboardlist/dynamicupload/{mode}",
      "UpstreamHttpMethod": [ "POST" ]
    },
    {
      "DownstreamPathTemplate": "/api/preonboarding/onboardlist/dynamicdownload/{mode}",
      "DownstreamScheme": "http",
      "DownstreamHostAndPorts": [
        {
          "Host": "172.16.100.141",
          "Port": 94
        }
      ],
      "UpstreamPathTemplate": "/api/preonboarding/onboardlist/dynamicdownload/{mode}",
      "UpstreamHttpMethod": [ "POST" ]
    }, 



    {
      "DownstreamPathTemplate": "/api/common/{name}/Options",
      "DownstreamScheme": "http",
      "DownstreamHostAndPorts": [
        {
          "Host": "172.16.100.141",
          "Port": 94
        }
      ],
      "UpstreamPathTemplate": "/api/tracker/{name}/Options",
      "UpstreamHttpMethod": [ "POST" ]
    },
    {
      "DownstreamPathTemplate": "/api/common/{Init}/Init",
      "DownstreamScheme": "http",
      "DownstreamHostAndPorts": [
        {
          "Host": "172.16.100.141",
          "Port": 94
        }
      ],
      "UpstreamPathTemplate": "/api/tracker/{Init}/Init",
      "UpstreamHttpMethod": [ "POST" ]
    },
    {
      "DownstreamPathTemplate": "/api/common/{Columns}/Columns",
      "DownstreamScheme": "http",
      "DownstreamHostAndPorts": [
        {
          "Host": "172.16.100.141",
          "Port": 94
        }
      ],
      "UpstreamPathTemplate": "/api/tracker/{Columns}/Columns",
      "UpstreamHttpMethod": [ "POST" ]
    },
    {
      "DownstreamPathTemplate": "/api/common/{Validation}/Validation",
      "DownstreamScheme": "http",
      "DownstreamHostAndPorts": [
        {
          "Host": "172.16.100.141",
          "Port": 94
        }
      ],
      "UpstreamPathTemplate": "/api/tracker/{Validation}/Validation",
      "UpstreamHttpMethod": [ "POST" ]
    },
    {
      "DownstreamPathTemplate": "/api/common/{SelectData}/SelectData",
      "DownstreamScheme": "http",
      "DownstreamHostAndPorts": [
        {
          "Host": "172.16.100.141",
          "Port": 94
        }
      ],
      "UpstreamPathTemplate": "/api/tracker/{SelectData}/SelectData",
      "UpstreamHttpMethod": [ "POST" ]
    },
    {
      "DownstreamPathTemplate": "/api/common/{RadioData}/RadioData",
      "DownstreamScheme": "http",
      "DownstreamHostAndPorts": [
        {
          "Host": "172.16.100.141",
          "Port": 94
        }
      ],
      "UpstreamPathTemplate": "/api/tracker/{RadioData}/RadioData",
      "UpstreamHttpMethod": [ "POST" ]
    },
    {
      "DownstreamPathTemplate": "/api/common/{Linkage}/Linkage",
      "DownstreamScheme": "http",
      "DownstreamHostAndPorts": [
        {
          "Host": "172.16.100.141",
          "Port": 94
        }
      ],
      "UpstreamPathTemplate": "/api/tracker/{Linkage}/Linkage",
      "UpstreamHttpMethod": [ "POST" ]
    },
    {
      "DownstreamPathTemplate": "/api/ecenter/{name}/dynamiclist/{mode}",
      "DownstreamScheme": "http",
      "DownstreamHostAndPorts": [
        {
          "Host": "172.16.100.141",
          "Port": 94
        }
      ],
      "UpstreamPathTemplate": "/api/tracker/{name}/dynamiclist/{mode}",
      "UpstreamHttpMethod": [ "POST" ]
    },
    {
      "DownstreamPathTemplate": "/api/ecenter/{name}/dynamicadd/{mode}",
      "DownstreamScheme": "http",
      "DownstreamHostAndPorts": [
        {
          "Host": "172.16.100.141",
          "Port": 94
        }
      ],
      "UpstreamPathTemplate": "/api/tracker/{name}/dynamicadd/{mode}",
      "UpstreamHttpMethod": [ "POST" ]
    },
    {
      "DownstreamPathTemplate": "/api/ecenter/{name}/dynamicListadd/{mode}",
      "DownstreamScheme": "http",
      "DownstreamHostAndPorts": [
        {
          "Host": "172.16.100.141",
          "Port": 94
        }
      ],
      "UpstreamPathTemplate": "/api/tracker/{name}/dynamicListadd/{mode}",
      "UpstreamHttpMethod": [ "POST" ]
    },
    {
      "DownstreamPathTemplate": "/api/common/{name}/dynamicListHeadAdd/{mode}",
      "DownstreamScheme": "http",
      "DownstreamHostAndPorts": [
        {
          "Host": "172.16.100.141",
          "Port": 94
        }
      ],
      "UpstreamPathTemplate": "/api/tracker/{name}/dynamicListHeadAdd/{mode}",
      "UpstreamHttpMethod": [ "POST" ]
    },
    {
      "DownstreamPathTemplate": "/api/ecenter/{name}/dynamiclistchild/{mode}",
      "DownstreamScheme": "http",
      "DownstreamHostAndPorts": [
        {
          "Host": "172.16.100.141",
          "Port": 94
        }
      ],
      "UpstreamPathTemplate": "/api/tracker/{name}/dynamiclistchild/{mode}",
      "UpstreamHttpMethod": [ "POST" ]
    },
    {
      "DownstreamPathTemplate": "/api/common/{name}/dynamicupload/{mode}",
      "DownstreamScheme": "http",
      "DownstreamHostAndPorts": [
        {
          "Host": "172.16.100.141",
          "Port": 94
        }
      ],
      "UpstreamPathTemplate": "/api/tracker/{name}/dynamicupload/{mode}",
      "UpstreamHttpMethod": [ "POST" ]
    },
    {
      "DownstreamPathTemplate": "/api/ecenter/{name}/dynamicdownload/{mode}",
      "DownstreamScheme": "http",
      "DownstreamHostAndPorts": [
        {
          "Host": "172.16.100.141",
          "Port": 94
        }
      ],
      "UpstreamPathTemplate": "/api/tracker/{name}/dynamicdownload/{mode}",
      "UpstreamHttpMethod": [ "POST" ]
    },
    {
      "DownstreamPathTemplate": "/api/ecenter/{name}/dynamicdownloadexcel/{mode}",
      "DownstreamScheme": "http",
      "DownstreamHostAndPorts": [
        {
          "Host": "172.16.100.141",
          "Port": 94
        }
      ],
      "UpstreamPathTemplate": "/api/tracker/{name}/dynamicdownloadexcel/{mode}",
      "UpstreamHttpMethod": [ "POST" ]
    },
    {
      "DownstreamPathTemplate": "/api/common/{name}/Options",
      "DownstreamScheme": "http",
      "DownstreamHostAndPorts": [
        {
          "Host": "172.16.100.141",
          "Port": 94
        }
      ],
      "UpstreamPathTemplate": "/api/expenses/{name}/Options",
      "UpstreamHttpMethod": [ "POST" ]
    },
    {
      "DownstreamPathTemplate": "/api/common/{Init}/Init",
      "DownstreamScheme": "http",
      "DownstreamHostAndPorts": [
        {
          "Host": "172.16.100.141",
          "Port": 94
        }
      ],
      "UpstreamPathTemplate": "/api/expenses/{Init}/Init",
      "UpstreamHttpMethod": [ "POST" ]
    },
    {
      "DownstreamPathTemplate": "/api/common/{Columns}/Columns",
      "DownstreamScheme": "http",
      "DownstreamHostAndPorts": [
        {
          "Host": "172.16.100.141",
          "Port": 94
        }
      ],
      "UpstreamPathTemplate": "/api/expenses/{Columns}/Columns",
      "UpstreamHttpMethod": [ "POST" ]
    },
    {
      "DownstreamPathTemplate": "/api/common/{Validation}/Validation",
      "DownstreamScheme": "http",
      "DownstreamHostAndPorts": [
        {
          "Host": "172.16.100.141",
          "Port": 94
        }
      ],
      "UpstreamPathTemplate": "/api/expenses/{Validation}/Validation",
      "UpstreamHttpMethod": [ "POST" ]
    },
    {
      "DownstreamPathTemplate": "/api/common/{SelectData}/SelectData",
      "DownstreamScheme": "http",
      "DownstreamHostAndPorts": [
        {
          "Host": "172.16.100.141",
          "Port": 94
        }
      ],
      "UpstreamPathTemplate": "/api/expenses/{SelectData}/SelectData",
      "UpstreamHttpMethod": [ "POST" ]
    },
    {
      "DownstreamPathTemplate": "/api/common/{RadioData}/RadioData",
      "DownstreamScheme": "http",
      "DownstreamHostAndPorts": [
        {
          "Host": "172.16.100.141",
          "Port": 94
        }
      ],
      "UpstreamPathTemplate": "/api/expenses/{RadioData}/RadioData",
      "UpstreamHttpMethod": [ "POST" ]
    },
    {
      "DownstreamPathTemplate": "/api/common/{Linkage}/Linkage",
      "DownstreamScheme": "http",
      "DownstreamHostAndPorts": [
        {
          "Host": "172.16.100.141",
          "Port": 94
        }
      ],
      "UpstreamPathTemplate": "/api/expenses/{Linkage}/Linkage",
      "UpstreamHttpMethod": [ "POST" ]
    },
    {
      "DownstreamPathTemplate": "/api/ecenter/{name}/dynamiclist/{mode}",
      "DownstreamScheme": "http",
      "DownstreamHostAndPorts": [
        {
          "Host": "172.16.100.141",
          "Port": 94
        }
      ],
      "UpstreamPathTemplate": "/api/expenses/{name}/dynamiclist/{mode}",
      "UpstreamHttpMethod": [ "POST" ]
    },
    {
      "DownstreamPathTemplate": "/api/ecenter/{name}/dynamicadd/{mode}",
      "DownstreamScheme": "http",
      "DownstreamHostAndPorts": [
        {
          "Host": "172.16.100.141",
          "Port": 94
        }
      ],
      "UpstreamPathTemplate": "/api/expenses/{name}/dynamicadd/{mode}",
      "UpstreamHttpMethod": [ "POST" ]
    },
    {
      "DownstreamPathTemplate": "/api/ecenter/{name}/dynamicListadd/{mode}",
      "DownstreamScheme": "http",
      "DownstreamHostAndPorts": [
        {
          "Host": "172.16.100.141",
          "Port": 94
        }
      ],
      "UpstreamPathTemplate": "/api/expenses/{name}/dynamicListadd/{mode}",
      "UpstreamHttpMethod": [ "POST" ]
    },
    {
      "DownstreamPathTemplate": "/api/common/{name}/dynamicListHeadAdd/{mode}",
      "DownstreamScheme": "http",
      "DownstreamHostAndPorts": [
        {
          "Host": "172.16.100.141",
          "Port": 94
        }
      ],
      "UpstreamPathTemplate": "/api/expenses/{name}/dynamicListHeadAdd/{mode}",
      "UpstreamHttpMethod": [ "POST" ]
    },
    {
      "DownstreamPathTemplate": "/api/ecenter/{name}/dynamiclistchild/{mode}",
      "DownstreamScheme": "http",
      "DownstreamHostAndPorts": [
        {
          "Host": "172.16.100.141",
          "Port": 94
        }
      ],
      "UpstreamPathTemplate": "/api/expenses/{name}/dynamiclistchild/{mode}",
      "UpstreamHttpMethod": [ "POST" ]
    },
    {
      "DownstreamPathTemplate": "/api/common/{name}/dynamicupload/{mode}",
      "DownstreamScheme": "http",
      "DownstreamHostAndPorts": [
        {
          "Host": "172.16.100.141",
          "Port": 94
        }
      ],
      "UpstreamPathTemplate": "/api/expenses/{name}/dynamicupload/{mode}",
      "UpstreamHttpMethod": [ "POST" ]
    },
    {
      "DownstreamPathTemplate": "/api/ecenter/{name}/dynamicdownload/{mode}",
      "DownstreamScheme": "http",
      "DownstreamHostAndPorts": [
        {
          "Host": "172.16.100.141",
          "Port": 94
        }
      ],
      "UpstreamPathTemplate": "/api/expenses/{name}/dynamicdownload/{mode}",
      "UpstreamHttpMethod": [ "POST" ]
    },
    {
      "DownstreamPathTemplate": "/api/ecenter/{name}/dynamicdownloadexcel/{mode}",
      "DownstreamScheme": "http",
      "DownstreamHostAndPorts": [
        {
          "Host": "172.16.100.141",
          "Port": 94
        }
      ],
      "UpstreamPathTemplate": "/api/expenses/{name}/dynamicdownloadexcel/{mode}",
      "UpstreamHttpMethod": [ "POST" ]
    },
    {
      "DownstreamPathTemplate": "/api/ecenter/{name}/resumeparser/{mode}",
      "DownstreamScheme": "http",
      "DownstreamHostAndPorts": [
        {
          "Host": "172.16.100.141",
          "Port": 94
        }
      ],
      "UpstreamPathTemplate": "/api/talent/{name}/resumeparser/{mode}",
      "UpstreamHttpMethod": [ "POST" ]
    },
    {
      "DownstreamPathTemplate": "/api/pdfconvert/docxtopdf",
      "DownstreamScheme": "http",
      "DownstreamHostAndPorts": [
        {
          "Host": "172.16.100.141",
          "Port": 93
        }
      ],
      "UpstreamPathTemplate": "/api/pdfconvert/docxtopdf",
      "UpstreamHttpMethod": [ "POST" ]
    }
  ],
  "DelegatingHandlers": [
    "HeaderDelegatingHandler"
  ],
  "GlobalConfiguration": {
    "BaseUrl": "https://mockapi18.chillsoft.io"
  }
}